Jawaban Latihan
…
df5 <- group_by(df4, penutur)

df6 <- top_n(df5, 25, wt = n)

df7 <- ungroup(df6)

df <- filter(df7, n >= 3)

df

## # A tibble: 162 x 3
##    penutur      teks        n
##    <chr>        <chr>   <int>
##  1 Ira Koesno   paslon     76
##  2 Imam Priyono paslon     33
##  3 Joko Widodo  hukum      32
##  4 Ira Koesno   01         28
##  5 Ira Koesno   silakan    28
##  6 Ira Koesno   menit      23
##  7 Imam Priyono habis      21
##  8 Imam Priyono menit      21
##  9 Sandiaga Uno hukum      21
## 10 Ira Koesno   02         20
## #  with 152 more rows
…
df

## # A tibble: 162 x 3
##    penutur      teks        n
##    <chr>        <chr>   <int>
##  1 Ira Koesno   paslon     76
##  2 Imam Priyono paslon     33
##  3 Joko Widodo  hukum      32
##  4 Ira Koesno   01         28
##  5 Ira Koesno   silakan    28
##  6 Ira Koesno   menit      23
##  7 Imam Priyono habis      21
##  8 Imam Priyono menit      21
##  9 Sandiaga Uno hukum      21
## 10 Ira Koesno   02         20
## #  with 152 more rows
…
df_sederhana

## # A tibble: 89 x 3
##    penutur   teks        n
##    <chr>     <chr>   <int>
##  1 Moderator paslon    109
##  2 Moderator menit      44
##  3 Paslon 02 hukum      39
##  4 Moderator 01         37
##  5 Moderator 02         36
##  6 Moderator debat      35
##  7 Moderator habis      34
##  8 Paslon 01 hukum      33
##  9 Moderator silakan    32
## 10 Moderator 1          29
## #  with 79 more rows
…
